<?xml version="1.0" encoding="UTF-8"?>
<svg width="10px" height="10px" viewBox="0 0 16 15" version="1.1" xmlns="http://www.w3.org/2000/svg" xmlns:xlink="http://www.w3.org/1999/xlink">
    <!-- Generator: Sketch 55.2 (78181) - https://sketchapp.com -->
    <title>Path</title>
    <desc>Created with Sketch.</desc>
    <g id="Page-1" stroke="none" stroke-width="1" fill="none" fill-rule="evenodd">
        <g id="play-button" fill="#FFFFFF" fill-rule="nonzero">
            <path d="M1.2650874,15 C0.79396688,15 0.412,14.6555763 0.412,14.2307618 L0.412,0.769202063 C0.412,0.344387571 0.79396688,0 1.2650874,0 L15.1276375,6.92303525 C15.1276375,6.92303525 15.7674531,7.49996389 15.1276375,8.07692863 C14.487822,8.65382115 1.2650874,15 1.2650874,15 Z" id="Path"></path>
        </g>
    </g>
</svg>