<?xml version="1.0" encoding="UTF-8"?>
<svg width="158px" height="158px" viewBox="0 0 158 158" version="1.1" xmlns="http://www.w3.org/2000/svg" xmlns:xlink="http://www.w3.org/1999/xlink">
    <!-- Generator: Sketch 52.3 (67297) - http://www.bohemiancoding.com/sketch -->
    <title>Fill 1</title>
    <desc>Created with Sketch.</desc>
    <g id="Page-2" stroke="none" stroke-width="1" fill="none" fill-rule="evenodd">
        <g id="Artboard" transform="translate(-4.000000, -4.000000)" fill="#AE9670">
            <g id="Group-3">
                <path d="M86.904055,161.547926 L161.671712,53.3303963 L161.671712,161.547926 L86.904055,161.547926 Z M4.28815973,53.3303963 L79.0543872,161.547926 L4.28815973,161.547926 L4.28815973,53.3303963 Z M21.899887,4.2845984 C14.2002948,7.71656173 8.1186604,12.8252312 4.28815973,17.7582322 L4.28815973,4.2845984 L21.899887,4.2845984 Z M82.9792211,24.6492946 C74.8351193,14.1577413 66.5709571,7.85509707 58.764168,4.2845984 L107.189986,4.2845984 C99.3846265,7.85509707 91.1233229,14.1591695 82.9792211,24.6492946 Z M4.28815973,26.3588494 C6.34348061,19.4420794 17.6334525,8.09931918 33.1812832,5.19007687 C45.2330674,2.93637811 63.2521427,5.25006124 80.8352842,28.91247 L80.8352842,156.583505 L4.28815973,45.7895031 L4.28815973,26.3588494 Z M161.671712,45.7895031 L85.123158,156.583505 L85.123158,28.91247 C102.707729,5.25006124 120.728233,2.93637811 132.778588,5.19007687 C148.326419,8.09931918 159.616391,19.4420794 161.671712,26.3588494 L161.671712,45.7895031 Z M161.671712,17.7582322 C157.841211,12.8252312 151.759577,7.71656173 144.058555,4.2845984 L161.671712,4.2845984 L161.671712,17.7582322 Z M58.3683855,4 L56.9636749,4 L4,4 L4,28.8041291 L4,48.2146378 L4,161.83 L56.9636749,161.83 L58.3683855,161.83 L161.83,161.83 L161.83,4 L58.3683855,4 Z" id="Fill-1"></path>
            </g>
        </g>
    </g>
</svg>