<?xml version="1.0" encoding="UTF-8"?>
<svg width="158px" height="158px" viewBox="0 0 158 158" version="1.1" xmlns="http://www.w3.org/2000/svg" xmlns:xlink="http://www.w3.org/1999/xlink">
    <!-- Generator: Sketch 52.3 (67297) - http://www.bohemiancoding.com/sketch -->
    <title>Fill 1</title>
    <desc>Created with Sketch.</desc>
    <g id="Page-2" stroke="none" stroke-width="1" fill="none" fill-rule="evenodd">
        <g id="Artboard" fill="#FFFFFF">
            <path d="M138.743038,95.3685462 C145.456687,92.3691576 151.792828,87.9201123 157.456889,82.1200555 L157.456889,125.097948 C152.856716,107.859327 143.637782,99.0084142 138.743038,95.3685462 Z M95.5540373,138.303549 C99.0831719,143.078553 108.543769,153.154668 127.637989,157.422149 L81.5576151,157.422149 C87.7021417,151.756479 92.4195708,145.277342 95.5540373,138.303549 Z M78.0856788,157.130502 L78.4331584,157.130502 L78.6848309,157.422149 L77.8254265,157.422149 L78.0856788,157.130502 Z M60.9233311,137.936131 C64.0620874,144.959961 68.8052558,151.562047 75.0041208,157.422149 L28.0071439,157.422149 C47.3601861,153.166105 57.0667363,143.121442 60.9233311,137.936131 Z M0,81.9785209 C5.3895091,87.5355387 11.4725475,91.8344716 17.9831431,94.7595187 C13.5974641,97.9976575 4.72457895,106.255269 0,122.41594 L0,81.9785209 Z M18.3434924,60.7068804 C11.7742685,63.641935 5.57111368,67.9737497 0,73.5936717 L0,32.3585128 C4.71313929,48.7021781 13.5803046,57.1656576 18.3434924,60.7068804 Z M61.532493,17.7761663 C58.3379683,13.4543591 50.2687192,4.77214438 34.5534884,0 L74.1118274,0 C68.6551103,5.33828254 64.4210067,11.3484967 61.532493,17.7761663 Z M96.164629,18.1392953 C93.2632456,11.6501511 88.996253,5.5184174 83.4737579,0 L123.847173,0 C107.944617,4.7592776 99.6580147,13.442922 96.164629,18.1392953 Z M157.456889,74.4686125 C151.978723,68.7286006 145.762698,64.3067185 139.104817,61.3159078 C143.604893,57.9934202 152.838127,49.4069915 157.456889,32.4014021 L157.456889,74.4686125 Z M117.90427,95.5572589 C107.039454,95.47291 96.5650171,91.4770611 87.6077645,84.161584 C86.5939248,82.9077881 85.5328964,81.6725776 84.4003702,80.4688192 L153.014012,80.4688192 C142.795537,90.3261995 130.479315,95.6802081 117.90427,95.5572589 Z M97.6532146,133.712969 L97.3000151,133.903112 C99.0745922,128.757831 100.026944,123.398104 100.069842,117.939731 C100.119891,111.496335 98.8658184,105.135859 96.4363209,99.0555924 L152.852427,154.907409 C111.114833,157.393556 98.1994583,134.713719 97.6532146,133.712969 Z M80.6882011,83.7198247 C81.7706788,84.7806189 82.8774657,85.7928053 84.0099919,86.7549542 L84.9051452,87.6399025 C92.0535018,96.7953287 95.8614781,107.250299 95.7799705,117.906849 C95.6827334,130.47626 90.3518526,142.528141 80.6882011,152.301172 L80.6882011,83.7198247 Z M60.7360067,117.103391 C60.8189443,106.240972 64.8171049,95.7674162 72.1327665,86.8135695 C73.589893,85.6369743 75.0127005,84.3831785 76.3983291,83.0493226 L76.3983291,152.79011 C66.1784243,142.463807 60.6359097,129.931567 60.7360067,117.103391 Z M60.0310378,98.9140579 C57.7316664,104.721263 56.4933234,110.831552 56.4461348,117.070509 C56.4032361,122.500289 57.2940995,127.868594 59.0229179,133.061053 C57.5300425,135.621541 44.045545,156.547208 4.46575668,155.016062 L60.0310378,98.9140579 Z M72.5746233,79.8955328 C71.513595,80.9777717 70.5011852,82.0843144 69.5402539,83.2165907 L68.6451006,84.121554 C59.5863211,91.1882735 49.2577394,94.9854022 38.7189541,94.9854022 C38.6074174,94.9854022 38.4930208,94.9854022 38.3800542,94.9839725 C25.8078695,94.8881865 13.7547594,89.5570522 3.97814123,79.8955328 L72.5746233,79.8955328 Z M38.8447903,60.5181676 C38.9577569,60.5181676 39.0721535,60.5181676 39.1836902,60.5195973 C50.0485058,60.6025165 60.5229431,64.599795 69.4787657,71.9138425 C70.4940354,73.1690681 71.5550637,74.4042786 72.68616,75.6066074 L4.07251842,75.6066074 C14.1980461,65.8421538 26.3727026,60.5181676 38.8447903,60.5181676 Z M1.25979239,4.25890297 L57.3756071,59.8147839 C51.5671205,57.5159198 45.4569129,56.27785 39.2165792,56.2306718 C39.0921729,56.2292422 38.9677666,56.2292422 38.8433603,56.2292422 C33.5396487,56.2292422 28.2974252,57.1199091 23.2210767,58.8097457 C20.4970081,57.2685918 -0.313160651,44.1344725 1.25979239,4.25890297 Z M60.6502093,57.0198341 L4.23553355,1.169447 C45.9602579,-1.29954441 58.8870719,21.3631376 59.4347456,22.3638869 L59.7865151,22.1751742 C58.013368,27.3190254 57.0595865,32.677323 57.0181177,38.1356954 C56.9680692,44.5790911 58.2221418,50.9395675 60.6502093,57.0198341 Z M76.3983291,3.77568403 L76.3983291,72.3556019 C75.3158515,71.2948076 74.2090645,70.2811916 73.0751084,69.3204723 L72.182815,68.4369537 C65.0344584,59.2815275 61.2250521,48.8265569 61.3079897,38.1685772 C61.4037968,25.5991663 66.7361076,13.5487155 76.3983291,3.77568403 Z M96.3519534,38.9720359 C96.2690159,49.8330247 92.2722852,60.3037214 84.9594836,69.2561384 C83.5009271,70.4355929 82.0766896,71.6922481 80.6882011,73.0275335 L80.6882011,3.28531689 C90.9095359,13.6130494 96.4520504,26.1452895 96.3519534,38.9720359 Z M97.0569224,57.1613687 C99.3562937,51.3541636 100.594637,45.2453041 100.641825,39.0063473 C100.684724,33.5765677 99.7938607,28.2082626 98.0650423,23.0143739 C99.5550578,20.4553151 113.032405,-0.471781799 152.622203,1.05936458 L97.0569224,57.1613687 Z M87.5491362,72.8574061 L88.4457195,71.9538725 C97.5030691,64.887153 107.830221,61.0900244 118.369006,61.0900244 C118.480543,61.0900244 118.596369,61.0900244 118.707906,61.091454 C131.280091,61.1886697 143.333201,66.5183743 153.108389,76.1798937 L84.5133369,76.1798937 C85.5743652,75.0976549 86.5882049,73.9896825 87.5491362,72.8574061 Z M134.516084,59.2200529 L134.707698,59.5717448 C129.561282,57.7989889 124.200372,56.8454178 118.740795,56.8025286 C112.311707,56.7353354 105.954117,57.9848424 99.8739383,60.4138038 L155.716631,4.03301956 C158.196177,45.7556863 135.518484,58.6725001 134.516084,59.2200529 Z M22.5718761,96.8568033 L22.3802618,96.5051114 C27.5281082,98.2778673 32.8875881,99.2314383 38.3471652,99.272898 C38.4730014,99.2743276 38.5959777,99.2743276 38.720384,99.2743276 C45.0393654,99.2743276 51.2739792,98.0191021 57.2397611,95.6358892 L1.37132906,152.043837 C-1.10964687,110.31974 21.569476,97.4029265 22.5718761,96.8568033 Z M54.0824717,0 L157,0 L157,157 L54.0824717,157 L52.6851483,157 L0,157 L0,0 L52.6851483,0 L54.0824717,0 Z M155.825308,151.813664 C157.351072,112.228312 136.412207,98.7525083 133.862594,97.2685401 C128.789105,98.9569471 123.546882,99.847614 118.2446,99.847614 C118.120194,99.847614 117.997217,99.847614 117.871381,99.8461843 C111.631047,99.7975765 105.52084,98.5609363 99.7109232,96.2620723 L155.825308,151.813664 Z" id="Fill-1"></path>
        </g>
    </g>
</svg>